<!-- Generated by IcoMoon.io -->
<svg version="1.1" xmlns="http://www.w3.org/2000/svg" width="21" height="32" viewBox="0 0 21 32">
<title>question</title>
<path d="M9.484 23.552l-0.64-6.912 0.213-0.213c2.731-0.057 4.821-0.626 6.272-1.707 1.479-1.081 2.219-2.546 2.219-4.395 0-1.564-0.569-2.873-1.707-3.925-1.138-1.081-2.645-1.621-4.523-1.621-2.873 0-5.461 1.337-7.765 4.011l-2.176-2.091c2.731-3.3 6.073-4.949 10.027-4.949 2.844 0 5.148 0.796 6.912 2.389s2.645 3.641 2.645 6.144c0 2.532-0.825 4.523-2.475 5.973-1.65 1.422-3.783 2.318-6.4 2.688l-0.427 4.608h-2.176zM8.588 32v-4.48h3.925v4.48h-3.925z"></path>
</svg>
